-6.57 -11.29
5.09 -3.02
2.04 3.29
-0.67 7.23
-5.0 -11.58
-1.55 6.06
5.05 -3.46
8.41 -3.62
-5.12 -9.25
6.38 -6.84
6.94 1.33
6.2 -2.46
2.37 5.74
6.87 0.89
3.89 -1.52
5.98 -1.85
2.26 7.68
-3.03 4.65
6.13 -0.43
5.01 -1.59
-8.98 -7.49
-0.63 5.65
-3.65 -9.36
-7.29 -9.28
-7.66 -8.65
4.59 -5.53
4.9 -2.86
2.89 -0.98
3.52 -1.23
-11.02 -9.92
7.2 -1.24
10.82 0.37
3.91 -1.53
2.98 -0.7
-3.19 4.75
-6.5 -10.09
-6.93 -9.55
1.64 7.6
6.57 -0.84
4.44 -4.52
-8.57 -9.7
4.82 -1.12
-8.49 -7.25
4.63 4.02
-6.26 -8.1
2.16 1.87
8.61 -1.14
-7.11 -8.9
-7.47 -6.74
-8.63 -8.28
-1.67 2.53
-4.5 -11.06
6.83 1.49
-6.16 -10.16
1.34 6.51
5.23 -3.45
-3.55 -10.04
-4.66 -11.35
4.19 0.09
0.99 9.76
1.55 4.44
-3.25 5.81
-3.67 5.79
1.64 5.37
1.43 5.4
1.83 6.95
0.63 5.57
7.7 -0.21
6.81 0.13
6.04 -1.57
-9.1 -10.16
6.21 -0.66
-3.23 7.7
5.95 -0.42
8.14 2.85
5.84 -5.25
-8.56 -13.12
4.05 -2.57
2.53 4.66
7.12 -2.16
4.44 -2.78
4.81 -1.43
8.94 -3.88
-6.98 -10.96
3.5 9.03
10.01 -2.56
-4.54 -9.12
0.82 3.75
0.18 6.58
-4.66 -12.12
-1.45 9.22
-11.01 -8.31
-6.31 -6.91
1.01 8.08
5.84 -1.77
-10.16 -12.83
-13.03 -12.46
-2.82 5.51
4.5 -5.33
2.08 6.06
